<?xml version="1.0" encoding="utf-8"?>
<!-- Generator: Adobe Illustrator 24.1.2, SVG Export Plug-In . SVG Version: 6.00 Build 0)  -->
<svg version="1.1" id="Capa_1" xmlns="http://www.w3.org/2000/svg" xmlns:xlink="http://www.w3.org/1999/xlink" x="0px" y="0px"
	 viewBox="0 0 100 100" style="enable-background:new 0 0 100 100;" xml:space="preserve">
<style type="text/css">
	.st0{display:none;fill:#606060;}
	.st1{display:none;}
	.st2{display:inline;fill:#606060;}
	.st3{display:inline;}
	.st4{fill:#606060;}
	.st5{fill:#F1B144;}
	.st6{display:inline;fill:#80CDD6;}
	.st7{display:inline;fill:#FFFFFF;}
	.st8{display:inline;fill:#86CFD7;}
</style>
<path id="Fb" class="st0" d="M66,30c-2.3,0-4.3,0-6.3,0c-3.4,0.1-4.8,1.5-4.9,4.9c0,2.2,0,4.5,0,6.7c0,0.1,0.1,0.3,0.1,0.6
	c3.5,0,7,0,10.7,0c-0.3,2.8-0.6,5.5-1,8.1c-0.5,3.1-0.5,3.1-3.7,3.1c-2,0-3.9,0-6.1,0c0,9.3,0,18.4,0,27.7c-3.9,0-7.6,0-11.5,0
	c0-9.2,0-18.4,0-27.8c-2.8,0-5.3-0.1-7.9,0c-1.3,0-1.6-0.4-1.6-1.6c0.1-2.7,0.1-5.5,0-8.2c0-0.9,0.3-1.2,1.2-1.2c2.7,0,5.4,0,8.2,0
	c0-0.7,0.1-1.3,0.1-1.9c0.2-3.4,0.1-6.9,0.6-10.3c0.8-5.6,5.1-9.6,10.8-10.2c3.4-0.3,6.8,0,10.2,0.1c1,0,1.3,0.4,1.3,1.4
	C65.9,24.1,66,26.9,66,30z"/>
<g id="Instagram" class="st1">
	<path class="st2" d="M80.6,50c0,5.8,0,11.7,0,17.5c0,7.7-5.6,13.3-13.3,13.3c-11.5,0-23-0.1-34.5,0c-7.3,0.1-13.6-5.8-13.5-13.5
		c0.2-11.6,0.2-23.2,0-34.8c-0.1-7.6,6.2-13.4,13.3-13.4c11.7,0.1,23.4,0,35.1,0c5.9,0,11.1,4,12.5,9.6c0.3,1.2,0.4,2.5,0.4,3.8
		C80.7,38.3,80.6,44.2,80.6,50z M75.3,49.9c0-5.8-0.1-11.6,0-17.4c0.1-5.2-4.1-8.2-8.1-8.1c-11.4,0.1-22.9,0-34.3,0
		c-5,0-8.2,3.2-8.2,8.1c0,11.6,0.1,23.2,0,34.7c-0.1,4.6,3.5,8.2,8.2,8.2c11.4-0.1,22.7-0.1,34.1,0c4.3,0.1,8.6-2.9,8.4-8.5
		C75.2,61.3,75.3,55.6,75.3,49.9z"/>
	<path class="st2" d="M34,49.9c0-8.9,7.2-16,16.2-16C58.9,34,66.1,41.2,66,50c0,8.9-7.2,16-16.2,16C41.1,65.9,34,58.7,34,49.9z
		 M50,60.7c5.9,0.1,10.7-4.7,10.7-10.6c0.1-5.9-4.7-10.8-10.6-10.8c-5.9,0-10.7,4.7-10.8,10.6C39.3,55.9,44,60.6,50,60.7z"/>
	<path class="st2" d="M71,33.1c0,2.1-1.6,3.8-3.7,3.8c-2,0-3.7-1.6-3.8-3.6c0-2.1,1.7-3.9,3.7-3.9C69.3,29.4,70.9,31,71,33.1z"/>
</g>
<path class="st0" d="M50,100.2c-27.7,0-50.2-22.3-50.2-50C-0.2,22.5,22.2,0,49.9,0C77.6,0,100,22.4,100,50.1
	C100,77.8,77.7,100.2,50,100.2z M95.5,50.1C95.4,24.9,75,4.5,49.7,4.5c-25,0-45.4,20.6-45.4,45.7c0,25,20.6,45.5,45.6,45.4
	C75.1,95.6,95.5,75.2,95.5,50.1z"/>
<g class="st1">
	<g class="st3">
		<path class="st4" d="M0,45.4C0,36,0,26.6,0,17.2c0-3,0.7-3.6,3.5-3.6c18.2,0,36.4-0.1,54.7-0.1c3.4,0,3.8,0.4,3.8,3.9
			c0,3.4,0,6.7,0,10.1c0,3,0,3,2.9,3c6.7,0,13.3,0,20,0c2,0,3.5,0.7,4.6,2.5c2.7,4.5,5.6,8.9,8.4,13.4c1.5,2.3,2.2,4.8,2.2,7.6
			c0,6.5,0,13.1,0,19.6c0,2.9-0.8,3.7-3.7,3.7c-2.7,0-5.3,0-8,0c-1.1,0-1.7,0.4-2,1.5c-1.7,5-5.7,8-10.4,8c-4.9,0-9-2.9-10.7-7.9
			c-0.4-1.2-1-1.6-2.2-1.6c-9.2,0-18.4,0-27.6,0c-1.2,0-1.8,0.3-2.2,1.6c-1.7,5-5.6,7.9-10.4,7.9c-5,0-8.9-2.9-10.7-7.9
			c-0.4-1.2-0.9-1.6-2.2-1.6c-2.1,0.1-4.2,0-6.3,0c-2.7,0-3.4-0.6-3.4-3.4c0-4.8,0-9.5,0-14.3c0-4.7,0-9.4,0-14.1
			C0.1,45.4,0,45.4,0,45.4z M3.3,45.3c0,8.8,0,17.6,0,26.5c0,1.7,0.5,2.3,2.2,2.2c1.5-0.1,2.9-0.1,4.4,0c1.2,0,1.9-0.3,2.4-1.6
			c1.6-4.7,5.7-7.6,10.3-7.6c4.8,0,8.8,2.7,10.5,7.4c0.5,1.5,1.3,1.9,2.8,1.9c7.1-0.1,14.2-0.1,21.3,0c1.9,0,2.4-0.6,2.3-2.4
			c-0.1-17.5-0.1-35,0-52.6c0-1.9-0.5-2.5-2.5-2.5c-17.1,0.1-34.1,0.1-51.2,0c-1.9,0-2.5,0.6-2.5,2.5C3.3,27.8,3.3,36.6,3.3,45.3z
			 M62,53.7C62,53.7,62,53.7,62,53.7c0,6.2,0,12.3,0,18.5c0,0.6,0.5,1.4,1,1.7c0.9,0.4,1.6-0.1,2-1.1c1.9-5.3,5.6-8.1,10.5-8.1
			c5.2,0,8.8,2.7,10.8,8c0.2,0.6,1.1,1.3,1.7,1.3c2.4,0.1,4.8,0.1,7.2,0c0.5,0,1.3-0.7,1.4-1.2c0.3-1.1-0.6-1.3-1.5-1.3
			c-2,0-3.9-0.1-5.9,0c-1.4,0.1-2-0.4-2-1.8c0-2.3,0-4.7,0-7c0-1.3,0.5-1.8,1.8-1.8c2,0.1,4.1,0,6.1,0c1.1,0,1.6-0.4,1.6-1.6
			c0-2.2,0.1-4.3-0.1-6.5c-0.1-1.4-0.5-2.9-1.2-4.1c-2.7-4.5-5.5-8.8-8.2-13.3c-0.8-1.3-1.6-1.8-3.2-1.8c-6.5,0.1-13.1,0.1-19.6,0
			c-1.9,0-2.5,0.5-2.5,2.4C62.1,41.9,62,47.8,62,53.7z M22.5,83.4c4.4,0,7.9-3.4,7.9-7.8c0-4.3-3.5-7.8-7.8-7.9
			c-4.2-0.1-7.9,3.6-7.9,7.8C14.6,79.8,18.1,83.3,22.5,83.4z M75.7,83.4c4.4,0,7.8-3.5,7.8-7.8c0-4.3-3.5-7.8-7.9-7.9
			c-4.2,0-7.9,3.7-7.9,7.9C67.8,79.9,71.3,83.4,75.7,83.4z M93.6,68.3c3.2,0,3.1,0,3.2-2.5c0-1.6-0.6-2-2-1.9
			c-0.8,0.1-1.5,0.1-2.3,0c-1.6-0.2-2.1,0.6-2,2.1c0,1.5,0.2,2.5,2,2.3C92.8,68.2,93.2,68.3,93.6,68.3z"/>
		<path class="st4" d="M44.8,63c-3.1,0-5.5-2.5-5.4-5.6c0-3.1,2.5-5.5,5.6-5.4c3.1,0,5.5,2.5,5.5,5.6C50.4,60.6,47.9,63,44.8,63z
			 M48.4,57.5c0-1.9-1.6-3.6-3.5-3.6c-1.8,0-3.5,1.7-3.6,3.5c0,1.9,1.6,3.5,3.5,3.6C46.8,61,48.4,59.4,48.4,57.5z"/>
		<path class="st4" d="M48.3,33.7c-1.9,0-3.3-1.5-3.3-3.3c0-1.9,1.5-3.3,3.4-3.2c1.9,0,3.3,1.5,3.3,3.3
			C51.7,32.3,50.2,33.7,48.3,33.7z M50.4,30.4c0-1.1-1-2.1-2.1-2.1c-1.1,0-2.1,1-2.1,2.1c0,1.1,1,2.1,2.1,2.1
			C49.5,32.6,50.4,31.6,50.4,30.4z"/>
		<path class="st4" d="M27.3,32.3c-0.1,2.8,0.2,3.1,3,3c3.4-0.1,4.9,1.4,4.8,4.8c0,0.8,0.3,1.7,0.3,2.6c0,0.5-0.2,1-0.3,1.5
			c-0.5-0.2-1.3-0.3-1.4-0.6c-0.4-1-0.6-2.2-0.7-3.3c0-2.6-0.3-3-3-2.9c-3.7,0.1-5.1-1.4-4.8-5.1c0.2-2.2-0.6-2.7-2.8-2.7
			c-1.2,0-2.4-0.4-3.6-0.8c-0.3-0.1-0.3-0.8-0.5-1.3c0.5-0.1,1-0.4,1.5-0.4c0.9,0.1,1.8,0.4,2.8,0.4C26.1,27.6,27.4,28.8,27.3,32.3z
			"/>
		<path class="st4" d="M79.2,58.2c-3.4,0-6.8,0-10.3,0c-1.7,0-2.4-0.6-2.4-2.3c0.1-5.3,0.1-10.5,0-15.8c0-1.5,0.5-2.2,2.1-2.1
			c4.4,0.1,8.9,0,13.3,0c1.6,0,2.8,0.7,3.6,2.1c2.1,3.8,4.4,7.4,6.2,11.3c0.7,1.5,0.6,3.6,0.4,5.3c-0.1,0.6-1.6,1.4-2.5,1.4
			C86.1,58.3,82.6,58.2,79.2,58.2C79.2,58.2,79.2,58.2,79.2,58.2z M79.3,55c2.5,0,5.1,0,7.6,0c2.4,0,2.9-0.8,1.8-2.8
			c-1.8-3.3-3.7-6.6-5.6-9.9c-0.3-0.5-1.1-1.1-1.8-1.1c-3.4-0.1-6.7,0-10.1-0.1c-1.1,0-1.6,0.4-1.6,1.6c0,3.5,0,7.1,0,10.6
			c0,1.2,0.5,1.7,1.7,1.7C74,55,76.6,55,79.3,55z"/>
	</g>
	<polygon class="st2" points="22.5,48.3 21.4,47.2 17.6,51.1 13.7,47.2 12.7,48.3 16.5,52.2 12.7,56 13.7,57.1 17.6,53.2 21.4,57.1 
		22.5,56 18.7,52.2 	"/>
</g>
<g class="st1">
	<path class="st2" d="M40.2,47.4c-0.3-0.2-0.6-0.4-0.9-0.5c-3.1-1.4-4.5-6-2-9.3c2.2-3,6.4-3.4,9.3-1c1.1,0.9,1.6,2.2,2,3.6
		c0.4,1.3,0.7,2.6,1.2,4.1c0.1-0.6,0.2-1,0.3-1.4c0.6-1.8,1-3.6,1.7-5.4c1.2-3.1,4.6-4.1,6.8-3.8c3.1,0.5,5.5,2.8,6.1,5.7
		c0.5,2.7-0.8,6.1-3.9,7.4c-0.4,0.2-0.8,0.4-1.2,0.6c0,0.1,0,0.1,0,0.2c4.1,0,8.1,0,12.2,0c0,0.3,0,0.5,0,0.7c0,3.1,0,6.1,0,9.2
		c0,0.6-0.2,0.7-0.7,0.7c-1.8,0-1.8,0-1.8,1.8c0,8.6,0,17.1,0,25.7c0,0.3,0,0.6,0,1c-0.3,0-0.6,0-0.8,0c-12.3,0-24.5,0-36.8,0
		c-0.9,0-0.9,0-0.9-0.9c0-8.9,0-17.8,0-26.7c0-0.9,0-0.9-0.9-0.9c-1.7,0-1.7,0-1.7-1.7c0-2.7,0-5.4,0-8.2c0-0.6,0.2-0.7,0.7-0.7
		c3.5,0,7,0,10.5,0c0.2,0,0.5,0,0.7,0C40.2,47.6,40.2,47.5,40.2,47.4z M54.2,67.2c0-5.6,0-11.1,0-16.7c0-0.6-0.2-0.8-0.8-0.8
		c-2.3,0-4.6,0-6.9,0c-0.5,0-0.7,0.1-0.7,0.7c0,11.2,0,22.3,0,33.5c0,0.5,0.2,0.7,0.7,0.7c2.3,0,4.6,0,6.9,0c0.7,0,0.8-0.2,0.8-0.8
		C54.2,78.3,54.2,72.7,54.2,67.2z M43.7,71.4c0-4.2,0-8.3,0-12.5c0-0.5-0.2-0.7-0.7-0.7c-3.2,0-6.3,0-9.5,0c-0.6,0-0.7,0.2-0.7,0.7
		c0,8.3,0,16.6,0,25c0,0.6,0.2,0.8,0.7,0.8c3.1,0,6.2,0,9.3,0c0.6,0,0.8-0.2,0.8-0.8C43.7,79.7,43.7,75.6,43.7,71.4z M67.2,71.5
		c0-4.1,0-8.3,0-12.4c0-0.6-0.1-0.8-0.8-0.8c-3.1,0-6.2,0-9.3,0c-0.6,0-0.8,0.1-0.8,0.7c0,8.3,0,16.6,0,25c0,0.6,0.2,0.7,0.8,0.7
		c3.1,0,6.1,0,9.2,0c0.9,0,0.9,0,0.9-0.9C67.2,79.7,67.2,75.6,67.2,71.5z M51.4,47c0.2,0,0.4,0,0.5,0c2.6-0.5,5.2-0.9,7.7-1.9
		c2.3-0.9,3.4-3,3-5.4c-0.4-2.1-2.2-3.7-4.4-3.9c-1.7-0.1-4,0.6-4.7,2.9c-0.5,1.7-1,3.4-1.4,5C51.7,44.9,51.6,45.9,51.4,47z
		 M30.3,49.8c0,2.1,0,4,0,6c0,0.5,0.3,0.4,0.6,0.4c4.1,0,8.2,0,12.2,0c0.5,0,0.7-0.1,0.6-0.6c0-1.7,0-3.3,0-5c0-0.7-0.2-0.8-0.8-0.8
		c-4,0-7.9,0-11.9,0C30.8,49.7,30.6,49.7,30.3,49.8z M63.1,49.7c-2,0-4,0-6.1,0c-0.6,0-0.7,0.2-0.7,0.7c0,1.7,0,3.4,0,5.1
		c0,0.5,0.1,0.7,0.6,0.7c4.1,0,8.2,0,12.2,0c0.5,0,0.6-0.2,0.6-0.6c0-1.7,0-3.4,0-5.1c0-0.6-0.2-0.7-0.8-0.7
		C67.1,49.7,65.1,49.7,63.1,49.7z M47.9,47.1c0-0.3,0-0.4,0-0.5c-0.4-1.9-0.8-3.9-1.3-5.8c-0.2-0.8-0.6-1.6-1.1-2.3
		c-1-1.3-3-1.7-4.5-1.1c-1.7,0.6-2.8,2.2-2.8,4c0,1.7,0.9,3.3,2.6,3.8c1.4,0.5,2.8,0.9,4.2,1.2C45.8,46.8,46.8,46.9,47.9,47.1z"/>
	<path class="st2" d="M83,26.7c0.1-0.6,0.1-1.2,0.2-1.8c0-1.1-0.6-1.7-1.7-1.7c-0.7,0-1.4,0.1-2,0.1c-2.1,0-3.7-1.5-3.7-3.7
		c0-0.6,0.1-1.2,0.1-1.8c0.1-1.3-0.5-1.9-1.8-1.9c-0.7,0-1.3,0.1-2,0.1c-0.9,0-1.6-0.3-2.3-0.8c-0.6-0.5-0.7-1.1-0.3-1.6
		c0.4-0.4,1-0.5,1.5,0c0.6,0.5,1.3,0.4,2.1,0.3c1.1-0.1,2.2-0.2,3.2,0.5c1.5,1,1.8,2.4,1.7,4c0,0.4-0.1,0.9-0.1,1.3
		c0,0.9,0.6,1.5,1.5,1.5c0.6,0,1.2-0.1,1.8-0.1c2.7-0.1,4.3,1.8,4,4.4c0,0.4-0.1,0.8-0.1,1.2c0.1,0.5,0.2,0.9,0.4,1.3
		c0.3,0.6,0.3,1.2-0.1,1.5c-0.5,0.4-1.1,0.3-1.5-0.2C83.3,28.6,83,27.7,83,26.7z"/>
	<path class="st2" d="M22.4,15.2c3,0,5.3,2.3,5.3,5.3c0,3-2.4,5.4-5.3,5.4c-2.9,0-5.3-2.5-5.3-5.3C17.1,17.6,19.5,15.2,22.4,15.2z
		 M25.7,20.5c0-1.8-1.4-3.2-3.2-3.2c-1.8,0-3.3,1.4-3.3,3.2c0,1.8,1.5,3.3,3.2,3.3C24.2,23.7,25.7,22.3,25.7,20.5z"/>
	<path class="st2" d="M54.5,17.7c1.1-1.1,2.1-2.1,3.1-3.2c0.5,0.5,0.9,1,1.3,1.5c-1,1-2,2-3.1,3c1.2,1.1,2.2,2.1,3.3,3.2
		c-0.6,0.6-1.1,1-1.6,1.5c-0.9-1-1.9-2.1-2.9-3.1c-1.2,1.2-2.2,2.2-3.2,3.3c-0.6-0.6-1-1.1-1.6-1.6c1-1,2.1-2,3.2-3.1
		c-0.9-0.9-1.8-1.8-2.7-2.6c-0.5-0.4-0.5-0.7,0-1.1c0.3-0.3,0.5-0.6,0.8-1C52.3,15.6,53.3,16.6,54.5,17.7z"/>
	<path class="st2" d="M87,69.7c-0.5,0.6-1,1-1.5,1.5c-1-1-2-2.1-3.1-3.1c-1.1,1.1-2.1,2.1-3.1,3.2c-0.5-0.6-0.9-1.1-1.4-1.6
		c1-0.9,2-2,3.1-3c-1.1-1.1-2.2-2.1-3.2-3.1c0.5-0.5,1-1,1.6-1.5c1,1,2,2.1,3.1,3.2c1.1-1.1,2.1-2.2,3.1-3.2c0.5,0.6,1,1,1.5,1.6
		c-1,0.9-2,1.9-3.2,3C84.9,67.7,86,68.7,87,69.7z"/>
	<path class="st2" d="M14.5,79.3c-0.9,0-1.3-0.8-1-1.5c0.4-0.9,1.1-1.4,2-1.6c1.8-0.5,1.8-0.5,1-2.2c-0.9-2-0.1-3.7,1.9-4.3
		c1.6-0.5,1.7-0.6,0.9-2.1c-0.4-0.8-0.6-1.6-0.3-2.4c0.2-0.7,0.7-1,1.3-0.9c0.6,0.2,0.7,0.7,0.7,1.4c0,0.5,0.1,1,0.4,1.5
		c0.6,1.2,0.7,2.4-0.2,3.4c-0.5,0.5-1.3,0.9-2,1.1c-1.2,0.4-1.4,0.6-0.8,1.8c0.4,0.7,0.7,1.4,0.5,2.3c-0.2,1.1-0.9,1.9-2,2.3
		c-0.7,0.3-1.6,0.3-2,1.1C14.9,79.2,14.6,79.3,14.5,79.3z"/>
	<path class="st2" d="M83.6,41.4c0,1.9-1.7,3.6-3.6,3.6c-1.9,0-3.6-1.7-3.6-3.6c0-2,1.7-3.6,3.6-3.6C81.9,37.8,83.6,39.4,83.6,41.4z
		 M80,39.9c-0.8,0-1.5,0.7-1.5,1.5c0,0.8,0.7,1.5,1.5,1.5c0.8,0,1.5-0.7,1.5-1.5C81.5,40.5,80.7,39.8,80,39.9z"/>
	<path class="st2" d="M13,38.8c0-2,1.6-3.5,3.5-3.5c2,0,3.6,1.6,3.6,3.5c0,1.9-1.7,3.6-3.6,3.6C14.6,42.4,13,40.8,13,38.8z
		 M16.6,37.4c-0.8,0-1.5,0.6-1.5,1.4c0,0.8,0.6,1.5,1.4,1.5c0.8,0,1.5-0.7,1.5-1.5C18,38.1,17.3,37.4,16.6,37.4z"/>
</g>
<g class="st1">
	<path class="st2" d="M36.9,25.6c0.2-1.4,0.3-2.7,0.6-4.1c1.5-7.8,8.3-13.3,16-13.1c4.1,0.1,7.4,1.8,10.3,4.7c1.3,1.3,2.1,1.3,3.4,0
		c9-9.1,22.7-4,25.9,7c1.7,5.7,0.7,11.1-1.9,16.2c-3,6-7.6,10.6-12.9,14.4c-2.6,1.9-5.3,3.5-8.1,5.3c0.3,2.5-0.4,3.8-2.9,4.7
		c-0.7,0.3-0.6,0.7-0.6,1.1c0,3.7,0,7.3,0,11c0,5,0,10,0,15c0,0.4,0.1,0.8-0.1,1.1c-0.3,0.4-0.8,1-1.1,0.9c-0.4,0-0.9-0.5-1.2-1
		c-0.2-0.3-0.1-0.7-0.1-1.1c0-8.5,0-17.1,0-25.6c0-0.9-0.2-1.3-1.1-1.6c-1.8-0.6-2.7-2.1-2.5-4c0.1-0.6-0.1-0.9-0.7-1.2
		c-0.8-0.4-1.5-0.8-2.4-1.3c-2.3,9.8-8,16.1-18.1,18.1c0,0.4,0.1,0.8,0.1,1.1c0.3,1.7-0.5,3-2.2,3.4c-0.7,0.1-0.8,0.5-0.8,1
		c0,3.4,0,6.9,0,10.3c0,0.3,0,0.6,0,0.9c-0.2,0.7-0.6,1.2-1.3,1c-0.4-0.1-0.8-0.7-1.1-1.1c-0.1-0.2,0-0.5,0-0.8c0-3.4,0-6.8,0-10.2
		c0-0.7-0.1-1-0.9-1.2c-1.5-0.4-2.2-1.7-1.9-3.2c0.1-0.4,0.2-0.7,0.2-1.1c-13-2.2-20.3-14-19.1-25.8C13.5,35.7,22.9,24.7,36.9,25.6z
		 M91.4,25.2c-0.1-0.6-0.1-1.5-0.2-2.3c-1-5.6-4.1-9.5-9.5-11.4c-5.1-1.7-9.4-0.2-13.1,3.6c-0.6,0.6-1.4,1.1-2.3,1.3
		c-1.7,0.5-3.1-0.2-4.3-1.4c-3-3.1-6.6-4.7-10.9-4c-6.7,1.1-11.5,6.9-11.7,13.9c0,0.8,0.1,1.2,1,1.4c4.8,1.2,8.8,3.8,11.9,7.6
		c3.9,4.7,5.7,10.2,5.5,16.3c0,0.4,0.1,1.1,0.4,1.2c1.3,0.8,2.7,1.6,4.2,2.2c1.6,0.7,1.8,1.2,0.9,2.6c-0.6,0.8-0.3,1.7,0.6,2
		c0.7,0.2,1.5,0.2,2.2,0.1c1.5-0.2,1.9-1.1,1-2.4c-0.6-0.9-0.4-1.7,0.7-2.1c0.6-0.2,1.2-0.4,1.7-0.7c6.5-3.6,12.5-8,16.9-14.1
		C89.4,35,91.3,30.6,91.4,25.2z M33.8,74.1c1.3,0,2.3,0,3.4,0c-0.1-0.9-0.2-1.6-0.3-2.3c-0.2-1.6,0.1-2,1.7-2.2
		c4.7-0.6,8.7-2.6,11.9-6.3c6.4-7.5,6.8-18.8,1-26.8c-5.2-7.2-14.3-10.2-22.6-7.3c-7.5,2.6-12,8-13.4,15.8
		C13,56.7,20.6,68.6,33.1,69.8c1.3,0.1,1.7,0.7,1.3,2C34.2,72.5,34,73.3,33.8,74.1z"/>
	<path class="st2" d="M88.7,71.9c0,0.3,0,0.6-0.1,0.8c0,1.4,0.5,1.9,1.9,1.9c0.6,0,1.1-0.1,1.7-0.1c2.3,0,3.9,1.5,3.9,3.9
		c0,0.4-0.1,0.8-0.1,1.2c0.1,0.7,0.2,1.4,0.4,1.9c0.3,0.6,0.4,1.1-0.2,1.6c-0.6,0.4-1.2,0.3-1.5-0.3c-0.4-0.7-0.7-1.4-0.8-2.2
		C93.8,80,94,79.3,94,78.6c0.1-1.4-0.5-2-1.9-2c-0.5,0-1,0.1-1.4,0.1c-2.5,0.2-4.3-1.6-4.1-4.1c0-0.5,0.1-1,0.1-1.4
		c0-1.4-0.6-2-2-1.9c-0.7,0-1.4,0.2-2.1,0.1c-0.8-0.2-1.6-0.5-2.2-1c-0.3-0.2-0.3-1-0.1-1.4c0.1-0.2,0.9-0.2,1.3-0.2
		c0.8,0.1,1.5,0.5,2.2,0.4C87.3,66.8,89,68.4,88.7,71.9z"/>
	<path class="st2" d="M21.7,86.4c0,3-2.4,5.4-5.4,5.4c-3,0-5.4-2.3-5.4-5.3c0-3,2.4-5.5,5.4-5.5C19.3,81,21.7,83.4,21.7,86.4z
		 M16.4,83.1c-1.8,0-3.3,1.5-3.3,3.3c0,1.8,1.5,3.3,3.3,3.3c1.8,0,3.3-1.5,3.3-3.3C19.6,84.6,18.1,83.1,16.4,83.1z"/>
	<path class="st2" d="M93.9,55.3c-1.2-1.1-2.3-2.1-3.4-3.1c0.6-0.6,1.1-1,1.7-1.6c0.9,1.1,1.9,2.2,3,3.5c1.2-1.3,2.1-2.4,3.1-3.6
		c0.6,0.7,1,1.1,1.6,1.8c-1,0.9-2.1,1.8-3.3,2.9c1.3,1.1,2.4,2.1,3.5,3.1c-0.6,0.7-1.1,1.1-1.7,1.7c-1-1.1-1.9-2.2-3-3.5
		c-1.2,1.3-2.1,2.4-3.1,3.5c-0.6-0.7-1-1.2-1.5-1.7C91.6,57.5,92.6,56.5,93.9,55.3z"/>
	<path class="st2" d="M3.6,78.6C1.6,78.6,0,77,0,75c0-2,1.6-3.6,3.6-3.6c1.9,0,3.6,1.7,3.6,3.6C7.2,76.9,5.6,78.6,3.6,78.6z M5.1,75
		c0-0.8-0.6-1.4-1.4-1.5c-0.8,0-1.5,0.6-1.6,1.5c0,0.8,0.7,1.4,1.4,1.5C4.4,76.5,5.1,75.8,5.1,75z"/>
	<path class="st2" d="M23.4,15.4c-2,0-3.6-1.6-3.6-3.6c0-2,1.7-3.6,3.6-3.6c2,0,3.6,1.7,3.6,3.7C27,13.8,25.4,15.5,23.4,15.4z
		 M24.9,11.8c0-0.8-0.7-1.5-1.5-1.5c-0.8,0-1.4,0.7-1.4,1.5c0,0.8,0.7,1.5,1.5,1.5C24.2,13.3,24.9,12.6,24.9,11.8z"/>
	<path class="st2" d="M88.3,24.3c0,1-0.3,1.5-1.1,1.6c-0.8,0.1-1.3-0.4-1.4-1.2c-0.5-2.8-1.6-5.2-4-6.7c-1-0.7-2.3-1-3.5-1.4
		c-1.1-0.3-1.7-0.7-1.5-1.5c0.2-0.8,0.8-1.2,2-1c4.7,0.7,8.3,4.2,9.4,9.1C88.2,23.6,88.3,24.1,88.3,24.3z"/>
	<path class="st2" d="M52,49.1c0,3.2-0.7,6.2-2.3,9c-0.2,0.4-0.9,0.8-1.3,0.9c-0.3,0-0.9-0.5-1-0.9c-0.1-0.3,0.1-0.9,0.3-1.2
		c2.2-4.3,2.5-8.7,0.9-13.3c-1.4-3.9-4-6.8-7.8-8.7c-0.3-0.2-0.6-0.3-0.9-0.5c-0.6-0.4-0.8-0.9-0.5-1.6c0.3-0.6,0.9-0.9,1.6-0.6
		c1.1,0.5,2.1,1,3.1,1.7C49.2,37.5,51.8,42.7,52,49.1z"/>
</g>
<g>
	<path class="st5" d="M28.5,57.5c0.2,1.2,0.3,2.1,0.5,3.1c0.7,3.5,2.8,5.2,6.4,5.2c15.5,0,31,0,46.6,0c1.1,0,2.1,0,3.2,0
		c2.2,0.1,3.7,1.4,3.8,3.3c0,1.9-1.4,3.3-3.7,3.3c-16.8,0-33.6,0.1-50.4,0c-6.1,0-11.1-4.3-12.2-10.3C20.3,48,18,33.9,15.6,19.8
		c-0.3-1.6-0.5-3.1-0.8-4.7c-0.4-2.2-1.8-3.3-4-3.3c-2.3,0-4.6,0-7,0C1.4,11.7,0,10.3,0,8.3c0-2,1.4-3.1,3.8-3.1
		c2.4,0,4.8-0.1,7.2,0c5.2,0.1,9.3,3.5,10.2,8.6c0.3,1.7,1,1.9,2.5,1.9c23.8,0,47.5,0,71.3,0c0.7,0,1.3,0,2,0c2.3,0.3,3.6,2.1,3,4.4
		c-3,11.4-5.9,22.8-8.9,34.2c-0.7,2.6-1.6,3.2-4.2,3.2c-18.7,0-37.4,0-56.1,0C29.9,57.5,29.3,57.5,28.5,57.5z M27.4,50.9
		C27.8,51,28,51,28.3,51c18.5,0,37,0,55.5,0c1.3,0,1.5-0.7,1.7-1.7c1.5-5.8,3.1-11.6,4.6-17.5c0.8-3.1,1.6-6.1,2.5-9.3
		c-23.3,0-46.4,0-69.8,0C24.3,32.1,25.9,41.5,27.4,50.9z"/>
	<path class="st5" d="M79.9,86.3c0,4.7-3.9,8.6-8.6,8.6c-4.7,0-8.7-4-8.7-8.8c0-4.7,4.1-8.8,8.8-8.7C76.1,77.4,79.9,81.4,79.9,86.3z
		 M74.5,86c-0.1-1.8-1.6-3.2-3.4-3.2c-1.7,0.1-3.2,1.6-3.2,3.2c0,1.8,1.6,3.3,3.3,3.3C73,89.3,74.5,87.7,74.5,86z"/>
	<path class="st5" d="M36,94.7c-4.8,0-8.8-3.9-8.8-8.7c0-4.6,4-8.6,8.6-8.7c4.7,0,8.8,4,8.7,8.7C44.6,90.8,40.7,94.7,36,94.7z
		 M36,82.8c-1.8,0-3.3,1.5-3.2,3.3c0,1.8,1.4,3.2,3.1,3.2c1.8,0,3.3-1.5,3.2-3.3C39.1,84.2,37.7,82.8,36,82.8z"/>
</g>
<g class="st1">
	<path class="st6" d="M31.4,25.8c-0.6-0.3-1.1-0.7-1.7-0.9c-5.9-2.6-8.5-11.3-3.8-17.5C30.1,1.8,38,0.9,43.4,5.5
		c2.1,1.8,3,4.2,3.8,6.7c0.8,2.4,1.4,4.9,2.2,7.7c0.3-1.1,0.4-1.9,0.6-2.6c1.1-3.4,1.9-6.9,3.2-10.2c2.3-5.8,8.8-7.7,12.9-7.1
		C72.1,1,76.6,5.3,77.6,10.8c0.9,5.1-1.4,11.6-7.3,14c-0.8,0.3-1.5,0.7-2.2,1c0,0.1,0,0.2,0.1,0.3c7.7,0,15.3,0,23,0
		c0,0.6,0.1,0.9,0.1,1.3c0,5.8,0,11.6,0,17.4c0,1.1-0.3,1.4-1.4,1.4c-3.4,0-3.4,0-3.4,3.4c0,16.2,0,32.3,0,48.5c0,0.6,0,1.1-0.1,1.9
		c-0.6,0-1.1,0-1.6,0c-23.2,0-46.3,0-69.5,0c-1.6,0-1.6,0-1.6-1.6c0-16.8,0-33.7,0-50.5c0-1.7,0-1.7-1.7-1.7c-3.3,0-3.3,0-3.3-3.2
		c0-5.1,0-10.3,0-15.4c0-1.1,0.3-1.4,1.4-1.4c6.6,0,13.3,0,19.9,0c0.4,0,0.9,0,1.3,0C31.4,26.1,31.4,26,31.4,25.8z M57.9,63.1
		c0-10.5,0-21,0-31.5c0-1.1-0.3-1.5-1.5-1.5c-4.4,0.1-8.7,0-13.1,0c-1,0-1.4,0.2-1.4,1.3c0,21.1,0,42.2,0,63.3c0,1,0.3,1.4,1.3,1.3
		c4.4,0,8.7-0.1,13.1,0c1.2,0,1.5-0.4,1.5-1.6C57.9,84,57.9,73.5,57.9,63.1z M38.1,71.1c0-7.9,0-15.7,0-23.6c0-1-0.3-1.4-1.3-1.3
		c-6,0-11.9,0-17.9,0c-1,0-1.3,0.3-1.3,1.4c0,15.7,0,31.4,0,47.1c0,1.1,0.3,1.4,1.4,1.4c5.9,0,11.8-0.1,17.7,0
		c1.2,0,1.5-0.4,1.5-1.6C38.1,86.7,38.1,78.9,38.1,71.1z M82.4,71.2c0-7.8,0-15.7,0-23.5c0-1.2-0.3-1.6-1.5-1.6
		c-5.9,0.1-11.8,0.1-17.7,0c-1.1,0-1.4,0.3-1.4,1.4c0,15.7,0,31.4,0,47.1c0,1.1,0.4,1.4,1.4,1.4c5.8,0,11.6,0,17.4,0
		c1.7,0,1.7,0,1.7-1.7C82.4,86.7,82.4,79,82.4,71.2z M52.6,25c0.5,0,0.7,0.1,0.9,0c4.9-0.9,9.9-1.7,14.5-3.6
		c4.4-1.7,6.5-5.6,5.6-10.2c-0.7-3.9-4.1-6.9-8.2-7.3c-3.1-0.3-7.5,1.2-8.9,5.5c-1,3.1-1.9,6.3-2.7,9.5C53.3,21,53,22.9,52.6,25z
		 M12.7,30.2c0,3.9,0,7.6,0,11.3c0,0.9,0.6,0.7,1.1,0.7c7.7,0,15.4,0,23.1,0c0.9,0,1.2-0.3,1.2-1.2c0-3.1-0.1-6.3,0-9.4
		c0-1.2-0.4-1.5-1.6-1.5c-7.5,0-15,0-22.5,0C13.7,30.1,13.3,30.2,12.7,30.2z M74.6,30.1c-3.8,0-7.6,0-11.4,0c-1.1,0-1.3,0.3-1.3,1.4
		c0.1,3.2,0,6.4,0,9.6c0,0.9,0.2,1.2,1.2,1.2c7.7,0,15.4,0,23.1,0c0.9,0,1.2-0.3,1.2-1.2c0-3.2-0.1-6.4,0-9.6c0-1.1-0.4-1.4-1.4-1.4
		C82.1,30.2,78.4,30.1,74.6,30.1z M46,25.2c0-0.5,0-0.8,0-1c-0.8-3.6-1.6-7.3-2.5-10.9c-0.4-1.5-1.2-3.1-2.1-4.3
		c-1.9-2.4-5.6-3.2-8.5-2.1c-3.2,1.2-5.3,4.1-5.3,7.5c-0.1,3.2,1.8,6.1,4.9,7.3c2.6,0.9,5.3,1.6,8,2.3C42.1,24.6,43.9,24.8,46,25.2z
		"/>
</g>
<g class="st1">
	<path class="st7" d="M15.3,0c23.2,0,46,0,69.3,0c0.1,1.3,0.2,2.6,0.2,3.8c0,25.1,0,50.2-0.1,75.3c0,1.8-0.8,3.9-1.8,5.4
		c-3.2,4.6-6.6,9-10.1,13.3c-0.8,1-2.5,2.1-3.7,2.1c-17.5-0.1-35-0.5-52.6-0.7c-0.3,0-0.7-0.2-1.2-0.4C15.3,66.1,15.3,33.2,15.3,0z
		 M19.6,4.3c0,30.3,0,60.2,0,90.7c16.1,0,31.9,0,48.3,0c0-5.1,0-10.6,0-16.5c4.5,0,8.4,0,12.3,0c0-25,0-49.6,0-74.2
		C59.9,4.3,39.8,4.3,19.6,4.3z M72.4,83.2c0,2.7,0,5,0,8.2c2.4-3.1,4.2-5.4,6.3-8.2C76.1,83.2,74.4,83.2,72.4,83.2z"/>
</g>
<g class="st1">
	<path class="st8" d="M69.9,20.4c3.5,0,6.5,0,9.5,0c4.3,0.1,6.3,2,6.6,6.3c1.8,20.5,3.5,41.1,5.3,61.6c0.1,1.7,0.1,3.4,0.2,5
		c0.4,4.3-1.6,6.7-5.8,6.7c-23.9,0-47.8,0-71.7,0c-4,0-6-2.1-5.7-6.1c0.6-9.5,1.4-18.9,2.2-28.3c0.8-9.4,1.7-18.9,2.5-28.3
		c0.4-4,0.7-8,1.2-12c0.4-3.4,2.5-4.8,5.7-4.9c3.3-0.1,6.6,0,10.4,0c0-2.1,0-3.9,0-5.6c0.1-7.4,5-13.4,12.4-14.3
		c4.7-0.6,9.6-0.6,14.4,0c7.3,1,12.3,7.2,12.6,14.7C69.9,16.7,69.9,18.3,69.9,20.4z M12.4,95.1c0.8,0.2,1.1,0.4,1.4,0.4
		c23.8,0,47.6,0,71.4,0.1c1.7,0,2.6-0.5,2.4-2.3c-0.1-1.1-0.1-2.2-0.2-3.3c-1.3-14.5-2.6-29.1-3.9-43.6c-0.6-6.4-1.2-12.9-1.8-19.3
		c-0.2-1.9-1-2.7-3-2.7c-19.2,0-38.4,0-57.6,0c-1.7,0-2.7,0.4-2.8,2.4C17.7,33.9,17,41,16.4,48.1c-0.8,9.2-1.7,18.4-2.5,27.6
		C13.4,82.1,12.9,88.5,12.4,95.1z M65.1,20.2c1.7-10.8-2.6-15.9-13-15.9c-1.6,0-3.1,0-4.7,0c-9.9,0-14.5,5.8-12.5,15.9
		C44.9,20.2,54.9,20.2,65.1,20.2z"/>
</g>
</svg>
